{
  "name": "Memmorable 1 year Membership",
  "description": "Yearly plan for Memmorable Membership.",
  "type": "infinite",
  "payment_definitions": [
    {
      "name": "Standard Yearly Plan",
      "type": "REGULAR",
      "frequency_interval": "1",
      "frequency": "YEAR",
      "cycles": "0",
      "amount": {
        "currency": "USD",
        "value": "120.00"
      },
      "charge_models": [
        {
          "type": "TAX",
          "amount": {
            "currency": "USD",
            "value": "19.2"
          }
        },
        {
          "type": "SHIPPING",
          "amount": {
            "currency": "USD",
            "value": "0.00"
          }
        }
      ]
    }
  ],
  "merchant_preferences": {
    "setup_fee": {
      "currency": "USD",
      "value": "1"
    },
    "cancel_url": "http://memmorable-nisophapps.rhcloud.com/#/payment/cancel/",
    "return_url": "http://memmorable-nisophapps.rhcloud.com/#/payment/confirmation/",
    "max_fail_attempts": "0",
    "auto_bill_amount": "YES",
    "initial_fail_amount_action": "CONTINUE"
  }
}