{
  "name": "Memmorable 6 Month Membership",
  "description": "Monthly plan for Memmorable 6 Month Membership.",
  "type": "infinite",
  "payment_definitions": [
    {
      "name": "Standard Monthly Plan",
      "type": "REGULAR",
      "frequency_interval": "6",
      "frequency": "MONTH",
      "cycles": "0",
      "amount": {
        "currency": "USD",
        "value": "66.00"
      },
      "charge_models": [
        {
          "type": "TAX",
          "amount": {
            "currency": "USD",
            "value": "10.56"
          }
        },
        {
          "type": "SHIPPING",
          "amount": {
            "currency": "USD",
            "value": "0.00"
          }
        }
      ]
    }
  ],
  "merchant_preferences": {
    "setup_fee": {
      "currency": "USD",
      "value": "1"
    },
    "cancel_url": "http://memmorable-nisophapps.rhcloud.com/#/payment/cancel/",
    "return_url": "http://memmorable-nisophapps.rhcloud.com/#/payment/confirmation/",
    "max_fail_attempts": "0",
    "auto_bill_amount": "YES",
    "initial_fail_amount_action": "CONTINUE"
  }
}